{
    "count": 120,
    "next": "https://www.apicbase.com/api/v1/recipes/?page=6",
    "previous": "https://www.apicbase.com/api/v1/recipes/?page=4",
    "results": [
        {
            "url": "https://www.apicbase.com/api/v1/recipes/549111564930005/",
            "id": "549111564930005",
            "name": "Spirelli met spek en Grana Padano",
            "uid": "12020113002001",
            "description": "Fresh Salad & Cold dish 1",
            "persons": 1,
            "cuisine": null,
            "recipe_stage": null,
            "remarks": null,
            "recipe_type": null,
            "recipe_type_other": null,
            "season": null,
            "difficulty": null,
            "recipe_class": null,
            "target_profit_margin": null,
            "vat": null,
            "current_sell_price": {
                "created": "2020-12-03 22:48:23.239100",
                "pricing": 0.0,
                "user_pk": 8762,
                "username": "hans@alberts.be"
            },
            "sell_price_history": [],
            "created_date": "2020-12-03T22:48:23.206786+01:00",
            "created_by": "hans@alberts.be",
            "modified_date": "2020-12-03T22:48:23.254311+01:00",
            "original": null,
            "clones": [],
            "public": false,
            "net_weight": "0.41",
            "net_weight_unit": "kg",
            "net_volume": null,
            "net_volume_unit": null,
            "prep_time": null,
            "prep_time_passive": null,
            "cooking_time": null,
            "cooking_time_passive": null,
            "plating_time": null,
            "portion_pieces": null,
            "custom_fields": [
                {
                    "name": "Kitchen Utensils",
                    "value": null
                },
                {
                    "name": "NutriScore",
                    "value": "B"
                },
                {
                    "name": "Picture",
                    "value": null
                }
            ],
            "main_stock_items": [],
            "shelf_life": null
        },
        {
            "url": "https://www.apicbase.com/api/v1/recipes/549111754980003/",
            "id": "549111754980003",
            "name": "Champignonsoep*",
            "uid": "12020113002000",
            "description": "Soup",
            "persons": 1,
            "cuisine": null,
            "recipe_stage": null,
            "remarks": null,
            "recipe_type": null,
            "recipe_type_other": null,
            "season": null,
            "difficulty": null,
            "recipe_class": null,
            "target_profit_margin": null,
            "vat": null,
            "current_sell_price": {
                "created": "2020-12-03 22:48:20.413018",
                "pricing": 0.0,
                "user_pk": 8762,
                "username": "hans@alberts.be"
            },
            "sell_price_history": [],
            "created_date": "2020-12-03T22:48:20.377458+01:00",
            "created_by": "hans@alberts.be",
            "modified_date": "2020-12-03T22:48:20.427404+01:00",
            "original": null,
            "clones": [],
            "public": false,
            "net_weight": "0.25",
            "net_weight_unit": "kg",
            "net_volume": null,
            "net_volume_unit": null,
            "prep_time": null,
            "prep_time_passive": null,
            "cooking_time": null,
            "cooking_time_passive": null,
            "plating_time": null,
            "portion_pieces": null,
            "custom_fields": [
                {
                    "name": "Kitchen Utensils",
                    "value": null
                },
                {
                    "name": "NutriScore",
                    "value": "B"
                },
                {
                    "name": "Picture",
                    "value": "https://mymms.prod.cs.sodexo.be/Pictures/BE_CS_PROD/CATMAN/SOEPEN/WIT/CATMANSOEPENWIT_26-03-19_14H17M36S/26-03-19_11H11M48S-CHAMPIGNONSOEP-CM.JPG"
                }
            ],
            "main_stock_items": [],
            "shelf_life": null
        },
        {
            "url": "https://www.apicbase.com/api/v1/recipes/349111926820003/",
            "id": "349111926820003",
            "name": "Mango Tango",
            "uid": "5860632D-E8FE-4ED4-94A1-EF075445F309",
            "description": "It takes two... no, three to tango! Let’s get moving with this love triangle of mango, raspberry and pineapple.",
            "persons": 1,
            "cuisine": "",
            "recipe_stage": "complete",
            "remarks": "<p><br></p>",
            "recipe_type": "Other",
            "recipe_type_other": "Smoothie",
            "season": "all_seasons",
            "difficulty": null,
            "recipe_class": "finished_product",
            "target_profit_margin": null,
            "vat": "6.00",
            "current_sell_price": {
                "created": "2020-12-02 22:23:22.079107",
                "pricing": 2.9,
                "user_pk": 8762,
                "username": "hans@alberts.be"
            },
            "sell_price_history": [],
            "created_date": "2020-12-02T22:22:21.732379+01:00",
            "created_by": "hans@alberts.be",
            "modified_date": "2020-12-03T00:03:03.136609+01:00",
            "original": null,
            "clones": [],
            "public": false,
            "net_weight": null,
            "net_weight_unit": "",
            "net_volume": null,
            "net_volume_unit": "",
            "prep_time": null,
            "prep_time_passive": null,
            "cooking_time": "00:03:00",
            "cooking_time_passive": null,
            "plating_time": null,
            "portion_pieces": null,
            "custom_fields": [
                {
                    "name": "Kitchen Utensils",
                    "value": null
                },
                {
                    "name": "NutriScore",
                    "value": null
                },
                {
                    "name": "Picture",
                    "value": null
                }
            ],
            "main_stock_items": [],
            "shelf_life": "00:00:00"
        },
        {
            "url": "https://www.apicbase.com/api/v1/recipes/949111993800004/",
            "id": "949111993800004",
            "name": "Witte chocolademousse",
            "uid": "12020121102011",
            "description": "Sweet",
            "persons": 1,
            "cuisine": "",
            "recipe_stage": "",
            "remarks": "<p><br data-mce-bogus=\"1\"></p>",
            "recipe_type": null,
            "recipe_type_other": null,
            "season": "",
            "difficulty": null,
            "recipe_class": "",
            "target_profit_margin": null,
            "vat": null,
            "current_sell_price": {
                "created": "2020-12-02 14:05:03.697849",
                "pricing": 0.0,
                "user_pk": 8762,
                "username": "hans@alberts.be"
            },
            "sell_price_history": [],
            "created_date": "2020-12-02T14:05:03.676702+01:00",
            "created_by": "hans@alberts.be",
            "modified_date": "2020-12-04T09:42:39.358651+01:00",
            "original": null,
            "clones": [],
            "public": false,
            "net_weight": "0.08",
            "net_weight_unit": "kg",
            "net_volume": null,
            "net_volume_unit": "",
            "prep_time": null,
            "prep_time_passive": null,
            "cooking_time": null,
            "cooking_time_passive": null,
            "plating_time": null,
            "portion_pieces": null,
            "custom_fields": [
                {
                    "name": "Kitchen Utensils",
                    "value": null
                },
                {
                    "name": "NutriScore",
                    "value": "A"
                },
                {
                    "name": "Picture",
                    "value": null
                }
            ],
            "main_stock_items": [],
            "shelf_life": "00:00:00"
        },
        {
            "url": "https://www.apicbase.com/api/v1/recipes/749111433830006/",
            "id": "749111433830006",
            "name": "Vleeskroket",
            "uid": "12020121102006",
            "description": "Snack",
            "persons": 1,
            "cuisine": "",
            "recipe_stage": "",
            "remarks": "<p><br></p>",
            "recipe_type": null,
            "recipe_type_other": null,
            "season": "",
            "difficulty": null,
            "recipe_class": "",
            "target_profit_margin": null,
            "vat": null,
            "current_sell_price": {
                "created": "2020-12-02 14:04:47.940884",
                "pricing": 0.0,
                "user_pk": 8762,
                "username": "hans@alberts.be"
            },
            "sell_price_history": [],
            "created_date": "2020-12-02T14:04:47.900838+01:00",
            "created_by": "hans@alberts.be",
            "modified_date": "2020-12-04T17:20:48.795859+01:00",
            "original": null,
            "clones": [],
            "public": false,
            "net_weight": "0.31",
            "net_weight_unit": "kg",
            "net_volume": null,
            "net_volume_unit": "",
            "prep_time": null,
            "prep_time_passive": null,
            "cooking_time": null,
            "cooking_time_passive": null,
            "plating_time": null,
            "portion_pieces": null,
            "custom_fields": [
                {
                    "name": "Kitchen Utensils",
                    "value": null
                },
                {
                    "name": "NutriScore",
                    "value": "D"
                },
                {
                    "name": "Picture",
                    "value": null
                }
            ],
            "main_stock_items": [],
            "shelf_life": "00:00:00"
        },
        {
            "url": "https://www.apicbase.com/api/v1/recipes/249111323810000/",
            "id": "249111323810000",
            "name": "Broccoli met amandelen*",
            "uid": "12020121102005",
            "description": "Groenten 1",
            "persons": 1,
            "cuisine": "",
            "recipe_stage": "",
            "remarks": "<p><br data-mce-bogus=\"1\"></p>",
            "recipe_type": null,
            "recipe_type_other": null,
            "season": "",
            "difficulty": null,
            "recipe_class": "",
            "target_profit_margin": null,
            "vat": null,
            "current_sell_price": {
                "created": "2020-12-02 14:04:45.002094",
                "pricing": 0.0,
                "user_pk": 8762,
                "username": "hans@alberts.be"
            },
            "sell_price_history": [],
            "created_date": "2020-12-02T14:04:44.977940+01:00",
            "created_by": "hans@alberts.be",
            "modified_date": "2020-12-04T09:14:16.454917+01:00",
            "original": null,
            "clones": [],
            "public": false,
            "net_weight": "0.20",
            "net_weight_unit": "kg",
            "net_volume": null,
            "net_volume_unit": "",
            "prep_time": null,
            "prep_time_passive": null,
            "cooking_time": null,
            "cooking_time_passive": null,
            "plating_time": null,
            "portion_pieces": null,
            "custom_fields": [
                {
                    "name": "Kitchen Utensils",
                    "value": null
                },
                {
                    "name": "NutriScore",
                    "value": "A"
                },
                {
                    "name": "Picture",
                    "value": null
                }
            ],
            "main_stock_items": [],
            "shelf_life": "00:00:00"
        },
        {
            "url": "https://www.apicbase.com/api/v1/recipes/449111213870003/",
            "id": "449111213870003",
            "name": "Bolognaisesaus (rund gehakt)",
            "uid": "12020121102004",
            "description": "Storia Di Pasta",
            "persons": 1,
            "cuisine": "",
            "recipe_stage": "",
            "remarks": "<p><br></p>",
            "recipe_type": null,
            "recipe_type_other": null,
            "season": "",
            "difficulty": null,
            "recipe_class": "",
            "target_profit_margin": null,
            "vat": null,
            "current_sell_price": {
                "created": "2020-12-02 14:04:41.635187",
                "pricing": 0.0,
                "user_pk": 8762,
                "username": "hans@alberts.be"
            },
            "sell_price_history": [],
            "created_date": "2020-12-02T14:04:41.557006+01:00",
            "created_by": "hans@alberts.be",
            "modified_date": "2020-12-03T22:13:27.827337+01:00",
            "original": null,
            "clones": [],
            "public": false,
            "net_weight": "0.23",
            "net_weight_unit": "kg",
            "net_volume": null,
            "net_volume_unit": "",
            "prep_time": null,
            "prep_time_passive": null,
            "cooking_time": null,
            "cooking_time_passive": null,
            "plating_time": null,
            "portion_pieces": null,
            "custom_fields": [
                {
                    "name": "Kitchen Utensils",
                    "value": null
                },
                {
                    "name": "NutriScore",
                    "value": "A"
                },
                {
                    "name": "Picture",
                    "value": null
                }
            ],
            "main_stock_items": [],
            "shelf_life": "00:00:00"
        },
        {
            "url": "https://www.apicbase.com/api/v1/recipes/149111103820001/",
            "id": "149111103820001",
            "name": "Tagliatelli\nKip met pestocrème\nGeraspte Italiaanse kaas",
            "uid": "12020121102003",
            "description": "Balanced 2",
            "persons": 1,
            "cuisine": "",
            "recipe_stage": "",
            "remarks": "<p><br data-mce-bogus=\"1\"></p>",
            "recipe_type": null,
            "recipe_type_other": null,
            "season": "",
            "difficulty": null,
            "recipe_class": "",
            "target_profit_margin": null,
            "vat": null,
            "current_sell_price": {
                "created": "2020-12-02 14:04:38.014403",
                "pricing": 0.0,
                "user_pk": 8762,
                "username": "hans@alberts.be"
            },
            "sell_price_history": [],
            "created_date": "2020-12-02T14:04:37.984700+01:00",
            "created_by": "hans@alberts.be",
            "modified_date": "2020-12-04T09:16:58.711720+01:00",
            "original": null,
            "clones": [],
            "public": false,
            "net_weight": "0.42",
            "net_weight_unit": "kg",
            "net_volume": null,
            "net_volume_unit": "",
            "prep_time": null,
            "prep_time_passive": null,
            "cooking_time": null,
            "cooking_time_passive": null,
            "plating_time": null,
            "portion_pieces": null,
            "custom_fields": [
                {
                    "name": "Kitchen Utensils",
                    "value": null
                },
                {
                    "name": "NutriScore",
                    "value": "A"
                },
                {
                    "name": "Picture",
                    "value": null
                }
            ],
            "main_stock_items": [],
            "shelf_life": "00:00:00"
        },
        {
            "url": "https://www.apicbase.com/api/v1/recipes/949111992890006/",
            "id": "949111992890006",
            "name": "Gegrilde rund steak\nChoronsaus (getomateerde béarnaise)\nRauwkostslaatje met yoghurtdressing\nFrieten",
            "uid": "12020121102002",
            "description": "Balanced 1",
            "persons": 1,
            "cuisine": "",
            "recipe_stage": "",
            "remarks": "<p><br data-mce-bogus=\"1\"></p>",
            "recipe_type": null,
            "recipe_type_other": null,
            "season": "",
            "difficulty": null,
            "recipe_class": "",
            "target_profit_margin": null,
            "vat": null,
            "current_sell_price": {
                "created": "2020-12-02 14:04:30.974333",
                "pricing": 0.0,
                "user_pk": 8762,
                "username": "hans@alberts.be"
            },
            "sell_price_history": [],
            "created_date": "2020-12-02T14:04:30.844727+01:00",
            "created_by": "hans@alberts.be",
            "modified_date": "2020-12-04T09:28:10.488397+01:00",
            "original": null,
            "clones": [],
            "public": false,
            "net_weight": "0.53",
            "net_weight_unit": "kg",
            "net_volume": null,
            "net_volume_unit": "",
            "prep_time": null,
            "prep_time_passive": null,
            "cooking_time": null,
            "cooking_time_passive": null,
            "plating_time": null,
            "portion_pieces": null,
            "custom_fields": [
                {
                    "name": "Kitchen Utensils",
                    "value": null
                },
                {
                    "name": "NutriScore",
                    "value": "A"
                },
                {
                    "name": "Picture",
                    "value": null
                }
            ],
            "main_stock_items": [],
            "shelf_life": "00:00:00"
        },
        {
            "url": "https://www.apicbase.com/api/v1/recipes/949111772830007/",
            "id": "949111772830007",
            "name": "Witte seldersoep*",
            "uid": "12020121102000",
            "description": "Soup",
            "persons": 1,
            "cuisine": "",
            "recipe_stage": "",
            "remarks": "<p><br data-mce-bogus=\"1\"></p>",
            "recipe_type": null,
            "recipe_type_other": null,
            "season": "",
            "difficulty": null,
            "recipe_class": "",
            "target_profit_margin": null,
            "vat": null,
            "current_sell_price": {
                "created": "2020-12-02 14:04:18.835311",
                "pricing": 0.0,
                "user_pk": 8762,
                "username": "hans@alberts.be"
            },
            "sell_price_history": [],
            "created_date": "2020-12-02T14:04:18.808190+01:00",
            "created_by": "hans@alberts.be",
            "modified_date": "2020-12-02T14:32:36.611134+01:00",
            "original": null,
            "clones": [],
            "public": false,
            "net_weight": "0.25",
            "net_weight_unit": "kg",
            "net_volume": null,
            "net_volume_unit": "",
            "prep_time": null,
            "prep_time_passive": null,
            "cooking_time": null,
            "cooking_time_passive": null,
            "plating_time": null,
            "portion_pieces": null,
            "custom_fields": [
                {
                    "name": "Kitchen Utensils",
                    "value": null
                },
                {
                    "name": "NutriScore",
                    "value": "B"
                },
                {
                    "name": "Picture",
                    "value": "https://mymms.prod.cs.sodexo.be/Pictures/BE_CS_PROD/CATMAN/SOEPEN/WIT/CATMANSOEPENWIT_26-03-19_14H17M36S/26-03-19_10H38M30S-SELDERSOEP-WIT-CM.JPG"
                }
            ],
            "main_stock_items": [],
            "shelf_life": null
        }
    ]
}