{
    "count": 120,
    "next": "https://www.apicbase.com/api/v1/recipes/?page=2",
    "previous": null,
    "results": [
        {
            "url": "https://www.apicbase.com/api/v1/recipes/349211840000003/",
            "id": "349211840000003",
            "name": "Gierst- en amarantpap met muesli en blauwe bessen",
            "uid": "12020120402011",
            "description": "Sweet",
            "persons": 1,
            "cuisine": null,
            "recipe_stage": null,
            "remarks": null,
            "recipe_type": null,
            "recipe_type_other": null,
            "season": null,
            "difficulty": null,
            "recipe_class": null,
            "target_profit_margin": null,
            "vat": null,
            "current_sell_price": {
                "created": "2020-12-03 22:51:39.478048",
                "pricing": 0.0,
                "user_pk": 8762,
                "username": "hans@alberts.be"
            },
            "sell_price_history": [],
            "created_date": "2020-12-03T22:51:39.455565+01:00",
            "created_by": "hans@alberts.be",
            "modified_date": "2020-12-03T22:51:39.491144+01:00",
            "original": null,
            "clones": [],
            "public": false,
            "net_weight": "0.17",
            "net_weight_unit": "kg",
            "net_volume": null,
            "net_volume_unit": null,
            "prep_time": null,
            "prep_time_passive": null,
            "cooking_time": null,
            "cooking_time_passive": null,
            "plating_time": null,
            "portion_pieces": null,
            "custom_fields": [
                {
                    "name": "Kitchen Utensils",
                    "value": null
                },
                {
                    "name": "NutriScore",
                    "value": "B"
                },
                {
                    "name": "Picture",
                    "value": "https://mymms.prod.cs.sodexo.be/Pictures/BE_CS_PROD/F50 RECEPTEN/2.JPG"
                }
            ],
            "main_stock_items": [],
            "shelf_life": null
        },
        {
            "url": "https://www.apicbase.com/api/v1/recipes/949111899990004/",
            "id": "949111899990004",
            "name": "Kipnuggets",
            "uid": "12020120402006",
            "description": "Snack",
            "persons": 1,
            "cuisine": null,
            "recipe_stage": null,
            "remarks": null,
            "recipe_type": null,
            "recipe_type_other": null,
            "season": null,
            "difficulty": null,
            "recipe_class": null,
            "target_profit_margin": null,
            "vat": null,
            "current_sell_price": {
                "created": "2020-12-03 22:51:24.140354",
                "pricing": 0.0,
                "user_pk": 8762,
                "username": "hans@alberts.be"
            },
            "sell_price_history": [],
            "created_date": "2020-12-03T22:51:24.118227+01:00",
            "created_by": "hans@alberts.be",
            "modified_date": "2020-12-03T22:51:24.155006+01:00",
            "original": null,
            "clones": [],
            "public": false,
            "net_weight": "0.15",
            "net_weight_unit": "kg",
            "net_volume": null,
            "net_volume_unit": null,
            "prep_time": null,
            "prep_time_passive": null,
            "cooking_time": null,
            "cooking_time_passive": null,
            "plating_time": null,
            "portion_pieces": null,
            "custom_fields": [
                {
                    "name": "Kitchen Utensils",
                    "value": null
                },
                {
                    "name": "NutriScore",
                    "value": "D"
                },
                {
                    "name": "Picture",
                    "value": null
                }
            ],
            "main_stock_items": [],
            "shelf_life": null
        },
        {
            "url": "https://www.apicbase.com/api/v1/recipes/949111779980000/",
            "id": "949111779980000",
            "name": "Shiitake en grana padano saus (v)",
            "uid": "12020120402004",
            "description": "Storia Di Pasta",
            "persons": 1,
            "cuisine": null,
            "recipe_stage": null,
            "remarks": null,
            "recipe_type": null,
            "recipe_type_other": null,
            "season": null,
            "difficulty": null,
            "recipe_class": null,
            "target_profit_margin": null,
            "vat": null,
            "current_sell_price": {
                "created": "2020-12-03 22:51:18.327434",
                "pricing": 0.0,
                "user_pk": 8762,
                "username": "hans@alberts.be"
            },
            "sell_price_history": [],
            "created_date": "2020-12-03T22:51:18.304280+01:00",
            "created_by": "hans@alberts.be",
            "modified_date": "2020-12-03T22:51:18.341530+01:00",
            "original": null,
            "clones": [],
            "public": false,
            "net_weight": "0.23",
            "net_weight_unit": "kg",
            "net_volume": null,
            "net_volume_unit": null,
            "prep_time": null,
            "prep_time_passive": null,
            "cooking_time": null,
            "cooking_time_passive": null,
            "plating_time": null,
            "portion_pieces": null,
            "custom_fields": [
                {
                    "name": "Kitchen Utensils",
                    "value": null
                },
                {
                    "name": "NutriScore",
                    "value": "B"
                },
                {
                    "name": "Picture",
                    "value": null
                }
            ],
            "main_stock_items": [],
            "shelf_life": null
        },
        {
            "url": "https://www.apicbase.com/api/v1/recipes/149111969920005/",
            "id": "149111969920005",
            "name": "Gevulde gehaktbal met ricotta, tomatencoulis, spirelli en rauwkostslaatje",
            "uid": "12020120402003",
            "description": "Balanced 2",
            "persons": 1,
            "cuisine": null,
            "recipe_stage": null,
            "remarks": null,
            "recipe_type": null,
            "recipe_type_other": null,
            "season": null,
            "difficulty": null,
            "recipe_class": null,
            "target_profit_margin": null,
            "vat": null,
            "current_sell_price": {
                "created": "2020-12-03 22:51:15.475857",
                "pricing": 0.0,
                "user_pk": 8762,
                "username": "hans@alberts.be"
            },
            "sell_price_history": [],
            "created_date": "2020-12-03T22:51:15.443145+01:00",
            "created_by": "hans@alberts.be",
            "modified_date": "2020-12-03T22:51:15.489036+01:00",
            "original": null,
            "clones": [],
            "public": false,
            "net_weight": "0.62",
            "net_weight_unit": "kg",
            "net_volume": null,
            "net_volume_unit": null,
            "prep_time": null,
            "prep_time_passive": null,
            "cooking_time": null,
            "cooking_time_passive": null,
            "plating_time": null,
            "portion_pieces": null,
            "custom_fields": [
                {
                    "name": "Kitchen Utensils",
                    "value": null
                },
                {
                    "name": "NutriScore",
                    "value": "B"
                },
                {
                    "name": "Picture",
                    "value": null
                }
            ],
            "main_stock_items": [],
            "shelf_life": null
        },
        {
            "url": "https://www.apicbase.com/api/v1/recipes/249111559960008/",
            "id": "249111559960008",
            "name": "Koolvis filet op Florentijnse wijze (spinazie, emmentaler)\nNatuuraardappelen",
            "uid": "12020120402002",
            "description": "Balanced 1",
            "persons": 1,
            "cuisine": null,
            "recipe_stage": null,
            "remarks": null,
            "recipe_type": null,
            "recipe_type_other": null,
            "season": null,
            "difficulty": null,
            "recipe_class": null,
            "target_profit_margin": null,
            "vat": null,
            "current_sell_price": {
                "created": "2020-12-03 22:51:12.263250",
                "pricing": 0.0,
                "user_pk": 8762,
                "username": "hans@alberts.be"
            },
            "sell_price_history": [],
            "created_date": "2020-12-03T22:51:12.232224+01:00",
            "created_by": "hans@alberts.be",
            "modified_date": "2020-12-03T22:51:12.290522+01:00",
            "original": null,
            "clones": [],
            "public": false,
            "net_weight": "0.32",
            "net_weight_unit": "kg",
            "net_volume": null,
            "net_volume_unit": null,
            "prep_time": null,
            "prep_time_passive": null,
            "cooking_time": null,
            "cooking_time_passive": null,
            "plating_time": null,
            "portion_pieces": null,
            "custom_fields": [
                {
                    "name": "Kitchen Utensils",
                    "value": null
                },
                {
                    "name": "NutriScore",
                    "value": "A"
                },
                {
                    "name": "Picture",
                    "value": null
                }
            ],
            "main_stock_items": [],
            "shelf_life": null
        },
        {
            "url": "https://www.apicbase.com/api/v1/recipes/649111949990001/",
            "id": "649111949990001",
            "name": "Catalaanse penne (tonijn, tomatentartaar, zwarte olijven et paprika)",
            "uid": "12020120402001",
            "description": "Fresh Salad & Cold dish 1",
            "persons": 1,
            "cuisine": null,
            "recipe_stage": null,
            "remarks": null,
            "recipe_type": null,
            "recipe_type_other": null,
            "season": null,
            "difficulty": null,
            "recipe_class": null,
            "target_profit_margin": null,
            "vat": null,
            "current_sell_price": {
                "created": "2020-12-03 22:51:07.679342",
                "pricing": 0.0,
                "user_pk": 8762,
                "username": "hans@alberts.be"
            },
            "sell_price_history": [],
            "created_date": "2020-12-03T22:51:07.644096+01:00",
            "created_by": "hans@alberts.be",
            "modified_date": "2020-12-03T22:51:07.701029+01:00",
            "original": null,
            "clones": [],
            "public": false,
            "net_weight": "0.40",
            "net_weight_unit": "kg",
            "net_volume": null,
            "net_volume_unit": null,
            "prep_time": null,
            "prep_time_passive": null,
            "cooking_time": null,
            "cooking_time_passive": null,
            "plating_time": null,
            "portion_pieces": null,
            "custom_fields": [
                {
                    "name": "Kitchen Utensils",
                    "value": null
                },
                {
                    "name": "NutriScore",
                    "value": "B"
                },
                {
                    "name": "Picture",
                    "value": null
                }
            ],
            "main_stock_items": [],
            "shelf_life": null
        },
        {
            "url": "https://www.apicbase.com/api/v1/recipes/149111639960007/",
            "id": "149111639960007",
            "name": "Brunoisesoep",
            "uid": "12020120402000",
            "description": "Soup",
            "persons": 1,
            "cuisine": null,
            "recipe_stage": null,
            "remarks": null,
            "recipe_type": null,
            "recipe_type_other": null,
            "season": null,
            "difficulty": null,
            "recipe_class": null,
            "target_profit_margin": null,
            "vat": null,
            "current_sell_price": {
                "created": "2020-12-03 22:51:04.666524",
                "pricing": 0.0,
                "user_pk": 8762,
                "username": "hans@alberts.be"
            },
            "sell_price_history": [],
            "created_date": "2020-12-03T22:51:04.640148+01:00",
            "created_by": "hans@alberts.be",
            "modified_date": "2020-12-03T22:51:04.681360+01:00",
            "original": null,
            "clones": [],
            "public": false,
            "net_weight": "0.25",
            "net_weight_unit": "kg",
            "net_volume": null,
            "net_volume_unit": null,
            "prep_time": null,
            "prep_time_passive": null,
            "cooking_time": null,
            "cooking_time_passive": null,
            "plating_time": null,
            "portion_pieces": null,
            "custom_fields": [
                {
                    "name": "Kitchen Utensils",
                    "value": null
                },
                {
                    "name": "NutriScore",
                    "value": "A"
                },
                {
                    "name": "Picture",
                    "value": null
                }
            ],
            "main_stock_items": [],
            "shelf_life": null
        },
        {
            "url": "https://www.apicbase.com/api/v1/recipes/949111829970002/",
            "id": "949111829970002",
            "name": "Vanillebavarois",
            "uid": "12020120302011",
            "description": "Sweet",
            "persons": 1,
            "cuisine": null,
            "recipe_stage": null,
            "remarks": null,
            "recipe_type": null,
            "recipe_type_other": null,
            "season": null,
            "difficulty": null,
            "recipe_class": null,
            "target_profit_margin": null,
            "vat": null,
            "current_sell_price": {
                "created": "2020-12-03 22:51:01.654777",
                "pricing": 0.0,
                "user_pk": 8762,
                "username": "hans@alberts.be"
            },
            "sell_price_history": [],
            "created_date": "2020-12-03T22:51:01.596106+01:00",
            "created_by": "hans@alberts.be",
            "modified_date": "2020-12-03T22:51:01.673627+01:00",
            "original": null,
            "clones": [],
            "public": false,
            "net_weight": "0.13",
            "net_weight_unit": "kg",
            "net_volume": null,
            "net_volume_unit": null,
            "prep_time": null,
            "prep_time_passive": null,
            "cooking_time": null,
            "cooking_time_passive": null,
            "plating_time": null,
            "portion_pieces": null,
            "custom_fields": [
                {
                    "name": "Kitchen Utensils",
                    "value": null
                },
                {
                    "name": "NutriScore",
                    "value": "D"
                },
                {
                    "name": "Picture",
                    "value": "https://mymms.prod.cs.sodexo.be/Pictures/BE_CS_PROD/CORPORATE MENU/WEEK 12/10-08-17_09H24M30S-220245-VANILLEBAVAROIS.JPG"
                }
            ],
            "main_stock_items": [],
            "shelf_life": null
        },
        {
            "url": "https://www.apicbase.com/api/v1/recipes/449111278960005/",
            "id": "449111278960005",
            "name": "Hamburger met vis",
            "uid": "12020120302006",
            "description": "Snack",
            "persons": 1,
            "cuisine": null,
            "recipe_stage": null,
            "remarks": null,
            "recipe_type": null,
            "recipe_type_other": null,
            "season": null,
            "difficulty": null,
            "recipe_class": null,
            "target_profit_margin": null,
            "vat": null,
            "current_sell_price": {
                "created": "2020-12-03 22:50:46.559396",
                "pricing": 0.0,
                "user_pk": 8762,
                "username": "hans@alberts.be"
            },
            "sell_price_history": [],
            "created_date": "2020-12-03T22:50:46.535496+01:00",
            "created_by": "hans@alberts.be",
            "modified_date": "2020-12-03T22:50:46.573996+01:00",
            "original": null,
            "clones": [],
            "public": false,
            "net_weight": "0.31",
            "net_weight_unit": "kg",
            "net_volume": null,
            "net_volume_unit": null,
            "prep_time": null,
            "prep_time_passive": null,
            "cooking_time": null,
            "cooking_time_passive": null,
            "plating_time": null,
            "portion_pieces": null,
            "custom_fields": [
                {
                    "name": "Kitchen Utensils",
                    "value": null
                },
                {
                    "name": "NutriScore",
                    "value": "B"
                },
                {
                    "name": "Picture",
                    "value": null
                }
            ],
            "main_stock_items": [],
            "shelf_life": null
        },
        {
            "url": "https://www.apicbase.com/api/v1/recipes/949111468960002/",
            "id": "949111468960002",
            "name": "Gegrilde artisjokken",
            "uid": "12020120302005",
            "description": "Groenten 1",
            "persons": 1,
            "cuisine": null,
            "recipe_stage": null,
            "remarks": null,
            "recipe_type": null,
            "recipe_type_other": null,
            "season": null,
            "difficulty": null,
            "recipe_class": null,
            "target_profit_margin": null,
            "vat": null,
            "current_sell_price": {
                "created": "2020-12-03 22:50:43.250807",
                "pricing": 0.0,
                "user_pk": 8762,
                "username": "hans@alberts.be"
            },
            "sell_price_history": [],
            "created_date": "2020-12-03T22:50:43.226560+01:00",
            "created_by": "hans@alberts.be",
            "modified_date": "2020-12-03T22:50:43.264209+01:00",
            "original": null,
            "clones": [],
            "public": false,
            "net_weight": "0.20",
            "net_weight_unit": "kg",
            "net_volume": null,
            "net_volume_unit": null,
            "prep_time": null,
            "prep_time_passive": null,
            "cooking_time": null,
            "cooking_time_passive": null,
            "plating_time": null,
            "portion_pieces": null,
            "custom_fields": [
                {
                    "name": "Kitchen Utensils",
                    "value": null
                },
                {
                    "name": "NutriScore",
                    "value": "A"
                },
                {
                    "name": "Picture",
                    "value": null
                }
            ],
            "main_stock_items": [],
            "shelf_life": null
        }
    ]
}